{
    "antifeatures": {
        "Ads": "このアプリは広告を表示します",
        "DisabledAlgorithm": "このアプリは弱いセキュリティ署名を使用しています",
        "KnownVuln": "このアプリは既知のセキュリティ脆弱性が含まれています",
        "NoSourceSince": "ソースコードはもう利用できません。更新できません。",
        "NonFreeAdd": "このアプリは有料アドオンを推奨します",
        "NonFreeAssets": "このアプリにはフリーではないアセットが含まれています",
        "NonFreeDep": "このアプリは他の有料アプリに依存します",
        "NonFreeNet": "このアプリは従量課金制ネットワークサービスを推奨します",
        "Tracking": "このアプリはあなたの操作を記録し報告します",
        "UpstreamNonFree": "アップストリームのソースコードは一部が無料ではありません"
    },
    "index": {
        "download_fdroid": "F-Droidをダウンロード",
        "gpg_signature": "PGP署名",
        "introduction": "F-Droidは、Androidプラットフォーム用のFOSS(フリーオープンソースソフトウェア)アプリケーションのインストール可能なカタログです。お使いの端末で簡単にブラウジング、インストール、およびアップデートの追跡ができます。",
        "screenshot": "F-Droid Androidアプリのスクリーンショット",
        "title": "F-Droidとは？"
    },
    "navigation": {
        "about": "F-Droidについて",
        "browse": "ブラウズ",
        "contribute": "貢献する",
        "documentation": "ドキュメント",
        "forum": "フォーラム",
        "issues": "課題",
        "news": "ニュース"
    },
    "package": {
        "anti_features": "好ましくない機能",
        "anti_features_warning": "このアプリは好ましくないかもしれない機能を含んでいます。",
        "author": "作者",
        "build_metadata": "ビルドのメタデータ",
        "changelog": "変更履歴",
        "donate": "寄付する",
        "download": "[file_extension]をダウンロード",
        "flattr": "Flattr",
        "gpg_signature": "PGP署名",
        "issue_tracker": "課題を追跡",
        "liberapay": "Liberapay",
        "license": "ライセンス",
        "minimum_android_version": "このバージョンはAndroid [android_version]以降が必要です。",
        "new_in_version": "このバージョンの新しい機能[latest_version]",
        "packages": "パッケージ",
        "permissions": "権限",
        "signed_by_developer": "開発者によって作成、署名されました。",
        "signed_by_fdroid": "F-Droidによって作成され、署名されました。<a href=\"[source_code_url]\">このソースtarball</a>に対応することを保証します。",
        "source_code": "ソースコード",
        "suggest_downloading_via_fdroid": "以下からAPKのダウンロードを行うこともできますが、この方法でインストールすると、更新の通知を受け取れないため、安全性の低いダウンロード方法になります。F-Droidクライアントをインストールして使用することをお勧めします。",
        "technical_info": "技術情報",
        "translation": "翻訳",
        "version_info": "<b>バージョン[package_version]</b>([package_version_code]) - [package_added_date]に追加",
        "website": "ウェブサイト"
    },
    "permissions": {
        "permdesc_acceptHandovers": "別のアプリで通話を続行することをこのアプリに許可します。",
        "permdesc_accessBackgroundLocation": "これが、おおよその位置情報または正確な位置情報へのアクセスの追加権限の場合、アプリはバックグラウンドでの実行中も位置情報にアクセスできます。",
        "permdesc_accessCoarseLocation": "このアプリは、フォアグラウンドでのみ、ネットワーク位置情報源（携帯基地局や Wi-Fi ネットワークなど）に基づいて、ユーザーの位置情報を取得できます。これらの位置情報サービスは ON の状態にして、スマートフォンでアプリがサービスを利用できるようにする必要があります。",
        "permdesc_accessDrmCertificates": "DRM証明書のプロビジョニングと使用をアプリに許可します。通常のアプリでは不要です。",
        "permdesc_accessFineLocation": "このアプリは、フォアグラウンド状態でのみユーザーの正確な位置情報を取得できます。この位置情報サービスは ON の状態にして、スマートフォンでアプリがサービスを利用できるようにする必要があります。これにより、電池の消費量が増える可能性があります。",
        "permdesc_accessImsCallService": "IMSサービスがユーザー操作なしで電話をかけることをアプリに許可します。",
        "permdesc_accessLocationExtraCommands": "位置情報提供元の追加のコマンドにアクセスすることをアプリに許可します。許可すると、アプリがGPSなどの位置情報源の動作を妨害する恐れがあります。",
        "permdesc_accessNetworkConditions": "ネットワーク状況を監視するためリッスンすることをアプリに許可します。通常のアプリで必要になることはありません。",
        "permdesc_accessNetworkState": "存在するネットワークや接続しているネットワークなど、ネットワーク接続に関する情報を表示することをアプリに許可します。",
        "permdesc_accessNotifications": "通知（他のアプリから投稿されたものも含む）を取得、調査、クリアすることをアプリに許可します。",
        "permdesc_accessWifiState": "Wi-FiがONになっているかどうか、接続されているWi-Fiデバイスの名前など、Wi-Fiネットワークに関する情報を表示することをアプリに許可します。",
        "permdesc_accessWimaxState": "WiMAXがONになっているかどうかを識別し、接続されているWiMAXネットワークの情報を表示することをアプリに許可します。",
        "permdesc_access_notification_policy": "サイレント モード設定の読み取りと書き込みをアプリに許可します。",
        "permdesc_activityRecognition": "このアプリで運動が認識されるようにします。",
        "permdesc_addVoicemail": "ボイスメール受信トレイにメッセージを追加することをアプリに許可します｡",
        "permdesc_answerPhoneCalls": "通話着信に応答することをアプリに許可します。",
        "permdesc_audioWrite": "音楽コレクションの変更をアプリに許可します。",
        "permdesc_bindCarrierMessagingService": "携帯通信会社のSMSサービスのトップレベルインターフェースにバインドすることを所有者に許可します。通常のアプリでは不要です。",
        "permdesc_bindCarrierServices": "携帯通信会社のサービスにバインドすることを所有者に許可します。通常のアプリでは不要です。",
        "permdesc_bindConditionProviderService": "コンディションプロバイダサービスのトップレベルインターフェースにバインドすることを所有者に許可します。通常のアプリでは不要です。",
        "permdesc_bindDreamService": "ドリームサービスのトップレベルインターフェースにバインドすることを所有者に許可します。通常のアプリでは不要です。",
        "permdesc_bindNotificationListenerService": "通知リスナーサービスのトップレベルインターフェースにバインドすることを所有者に許可します。通常のアプリでは不要です。",
        "permdesc_bind_connection_service": "受発信のためアプリが電話サービスと通信することを許可する。",
        "permdesc_bind_incall_service": "通話画面をユーザーに表示するタイミングと方法の制御をアプリに許可します。",
        "permdesc_bluetooth": "モバイルデバイスのBluetooth設定を表示すること、ペアのデバイスに接続すること/ペアのデバイスからの接続を受け入れることをアプリに許可します。",
        "permdesc_bluetoothAdmin": "ローカルのBluetoothモバイル デバイスを設定することと、リモートデバイスを検出してペアに設定することをアプリに許可します。",
        "permdesc_bodySensors": "心拍数など、身体状態を監視するセンサーからのデータにアクセスすることをアプリに許可します。",
        "permdesc_broadcastSticky": "配信が終了してもメモリに残るstickyブロードキャストの配信をアプリに許可します。この許可を使用し過ぎると、メモリの使用量が増えてモバイル デバイスの動作が遅くなったり不安定になったりする恐れがあります。",
        "permdesc_callCompanionApp": "デバイスで進行中の通話の表示と操作をアプリに許可します。通話の電話番号や状態などの情報も含まれます。",
        "permdesc_callPhone": "電話番号への自動発信をアプリに許可します。これにより、予期せぬ発信や料金が発生する可能性があります。なお、緊急通報番号への発信は許可されません。悪意のあるアプリが確認なしで発信し、料金が発生する恐れがあります。",
        "permdesc_camera": "このアプリは、いつでもカメラを使用して写真や動画を撮影できます。",
        "permdesc_changeNetworkState": "ネットワーク接続状態の変更をアプリに許可します。",
        "permdesc_changeTetherState": "ネットワークのテザリング接続状態の変更をアプリに許可します。",
        "permdesc_changeWifiMulticastState": "マルチキャストアドレスを使用して、このモバイル デバイスだけでなくWi-Fiネットワーク上のすべてのデバイスに送信されたパケットを受信することをアプリに許可します。マルチキャスト以外のモードよりも電池の消費量が大きくなります。",
        "permdesc_changeWifiState": "Wi-Fiアクセスポイントへの接続/切断、Wi-Fiネットワークのデバイス設定の変更をアプリに許可します。",
        "permdesc_changeWimaxState": "モバイル デバイスのWiMAXネットワークへの接続と切断をアプリに許可します。",
        "permdesc_connection_manager": "通信接続の管理をアプリに許可します。",
        "permdesc_control_incall_experience": "通話中のユーザーエクスペリエンスの提供をアプリに許可します。",
        "permdesc_createNetworkSockets": "ネットワークソケットの作成とカスタムネットワークプロトコルの使用をアプリに許可します。インターネットにデータを送信する手段はブラウザや他のアプリが提供するため、インターネットへのデータ送信のためにこれを許可する必要はありません。",
        "permdesc_disableKeyguard": "キーロックとキーロックに関連付けられたパスワードのセキュリティを無効にすることをアプリに許可します。たとえば、かかってきた電話を受ける際にキーロックを無効にし、通話が終了したらキーロックを再度有効にする場合などに使用します。",
        "permdesc_enableCarMode": "運転モードを有効にすることをアプリに許可します。",
        "permdesc_expandStatusBar": "ステータスバーの展開/折りたたみをアプリに許可します。",
        "permdesc_foregroundService": "フォアグラウンド サービスの使用をアプリに許可します。",
        "permdesc_getAccounts": "モバイル デバイスで認識されているアカウントのリストの取得をアプリに許可します。これには、インストールしたアプリによって作成されたアカウントも含まれます。",
        "permdesc_getPackageSize": "アプリのコード、データ、キャッシュサイズを取得することをアプリに許可します",
        "permdesc_getTasks": "現在実行中または最近実行したタスクに関する情報の取得をアプリに許可します。これにより、そのデバイスでどのアプリを使用しているかをアプリから識別できるようになる可能性があります。",
        "permdesc_handoverStatus": "現在のAndroidビーム転送に関する情報を受信することをこのアプリに許可します。",
        "permdesc_imagesWrite": "写真コレクションの変更をアプリに許可します。",
        "permdesc_install_shortcut": "ユーザー操作なしでホーム画面にショートカットを追加することをアプリに許可します。",
        "permdesc_invokeCarrierSetup": "携帯通信会社が提供する設定アプリを呼び出すことを所有者に許可します。通常のアプリでは不要です。",
        "permdesc_killBackgroundProcesses": "他のアプリのバックグラウンドプロセスを終了することをアプリに許可します。これを許可すると、他のアプリの実行が停止する原因になることがあります。",
        "permdesc_manageFace": "使用する顔テンプレートの追加や削除を行うメソッドの呼び出しをアプリに許可します。",
        "permdesc_manageFingerprint": "使用する指紋テンプレートの追加や削除を行う方法の呼び出しをアプリに許可します。",
        "permdesc_manageNetworkPolicy": "ネットワークポリシーを管理しアプリ固有のルールを定義することをアプリに許可します。",
        "permdesc_manageOwnCalls": "通話環境の改善のために、システム経由での通話転送をアプリに許可します。",
        "permdesc_manageProfileAndDeviceOwners": "プロファイルの所有者とデバイスの所有者の設定をアプリに許可します。",
        "permdesc_mediaLocation": "メディア コレクションの位置情報の読み取りをアプリに許可します。",
        "permdesc_modifyAudioSettings": "音声全般の設定（音量、出力に使用するスピーカーなど）の変更をアプリに許可します。",
        "permdesc_modifyNetworkAccounting": "アプリに対するネットワーク利用の計算方法を変更することをアプリに許可します。通常のアプリでは使用しません。",
        "permdesc_nfc": "NFCタグ、カード、リーダーとの通信をアプリに許可します。",
        "permdesc_persistentActivity": "アプリにその一部をメモリに常駐させることを許可します。これにより他のアプリが使用できるメモリが制限されるため、モバイル デバイスの動作が遅くなることがあります。",
        "permdesc_processOutgoingCalls": "発信を別の番号に転送するか完全に中止するオプションで、発信中にダイヤルされた番号にアクセスすることをアプリに許可します。",
        "permdesc_readCalendar": "このアプリは、お使いのスマートフォンに保存されたカレンダーの予定をすべて読み取り、カレンダーのデータを共有したり、保存したりできます。",
        "permdesc_readCallLog": "このアプリは通話履歴を読み取ることができます。",
        "permdesc_readCellBroadcasts": "デバイスで受信した緊急速報メール SMS の読み取りをアプリに許可します。緊急速報メールは、緊急事態を警告する目的で一部の地域に配信されます。緊急速報メールの受信時に、悪意のあるアプリによってデバイスの動作や処理が妨害される恐れがあります。",
        "permdesc_readContacts": "モバイル デバイスに保存されている連絡先に関するデータの読み取りをアプリに許可します。このデータには、電話、メール、または他の手段で特定の相手と連絡をとった頻度も含まれます。これにより、アプリに連絡先データの保存を許可することになり、悪意のあるアプリによって知らないうちに連絡先データが共有される恐れがあります。",
        "permdesc_readHistoryBookmarks": "ブラウザからアクセスしたすべてのURLの履歴とブラウザのすべてのブックマークの読み取りをアプリに許可します。注: この許可は、サードパーティブラウザまたはウェブブラウジング機能を備えたその他のアプリでは適用されない場合があります。",
        "permdesc_readInstallSessions": "インストールセッションの読み取りをアプリに許可します。これにより、アプリはアクティブパッケージのインストールに関する詳細情報を参照できるようになります。",
        "permdesc_readNetworkUsageHistory": "特定のネットワークやアプリに関するネットワーク使用履歴の読み取りをアプリに許可します。",
        "permdesc_readPhoneNumbers": "デバイスの電話番号へのアクセスをアプリに許可します。",
        "permdesc_readPhoneState": "デバイスの電話機能へのアクセスをアプリに許可します。これにより、電話番号、デバイスID、通話中かどうか、通話相手の電話番号をアプリから特定できるようになります。",
        "permdesc_readSms": "このアプリは、お使いのスマートフォンに保存された SMS（テキスト）メッセージをすべて読み取ることができます。",
        "permdesc_readSyncSettings": "アカウントの同期設定の読み取りをアプリに許可します。たとえば、連絡帳アプリがアカウントと同期しているかどうかをアプリから特定できるようになります。",
        "permdesc_readSyncStats": "アカウントの同期ステータス（同期イベントの履歴、同期されたデータの量など）の読み取りをアプリに許可します。",
        "permdesc_receiveBootCompleted": "システムの起動後に自動的に起動することをアプリに許可します。許可すると、モバイル デバイスの起動時間が長くなったり、アプリが常に実行されるためにモバイル デバイス全体の動作が遅くなったりする可能性があります。",
        "permdesc_receiveMms": "MMSメッセージの受信と処理をアプリに許可します。これにより、アプリがデバイスに届いたメッセージを表示することなく監視または削除できるようになります。",
        "permdesc_receiveSms": "SMSメッセージの受信と処理をアプリに許可します。これにより、アプリがデバイスに届いたメッセージを表示することなく監視または削除できるようになります。",
        "permdesc_receiveWapPush": "WAPメッセージの受信と処理をアプリに許可します。これにより、アプリがデバイスに届いたメッセージを表示することなく監視または削除できるようになります。",
        "permdesc_recordAudio": "このアプリは、いつでもマイクを使用して録音できます。",
        "permdesc_register_call_provider": "新しい通信接続の登録をアプリに許可します。",
        "permdesc_register_sim_subscription": "アプリに新しい通信SIM接続の登録を許可します。",
        "permdesc_removeDrmCertificates": "DRM証明書の削除をアプリに許可します。通常のアプリでは不要です。",
        "permdesc_reorderTasks": "タスクをフォアグラウンドやバックグラウンドに移動することをアプリに許可します。これにより、アプリがユーザーからの入力なしでこの処理を実行する可能性があります。",
        "permdesc_requestDeletePackages": "パッケージの削除をリクエストすることをアプリに許可します。",
        "permdesc_requestIgnoreBatteryOptimizations": "電池の最適化の無視についてアプリが確認することを許可します。",
        "permdesc_requestInstallPackages": "パッケージのインストールをリクエストすることをアプリケーションに許可します。",
        "permdesc_requestPasswordComplexity": "このアプリに画面ロックの複雑さレベル（高、中、低、なし）を認識することを許可します。複雑さレベルは、画面ロックの文字数の範囲やタイプを示すものです。アプリから一定レベルまで画面ロックを更新するよう推奨されることもありますが、ユーザーは無視したり別の操作を行ったりできます。画面ロックは平文で保存されないため、アプリが正確なパスワードを知ることはありません。",
        "permdesc_route_media_output": "メディア出力を他の外部デバイスにルーティングすることをアプリに許可します。",
        "permdesc_runInBackground": "このアプリにバックグラウンドでの実行を許可します。許可すると電池消費量が増える場合があります。",
        "permdesc_sdcardRead": "共有ストレージのコンテンツの読み取りをアプリに許可します。",
        "permdesc_sdcardWrite": "共有ストレージのコンテンツの書き込みをアプリに許可します。",
        "permdesc_sendSms": "SMSメッセージの送信をアプリに許可します。これにより、予期せぬ料金が発生する可能性があります。悪意のあるアプリが確認なしでメッセージを送信し、料金が発生する恐れがあります。",
        "permdesc_setAlarm": "インストール済みアラームアプリのアラームを設定することをアプリに許可します。この機能が実装されていないアラームアプリもあります。",
        "permdesc_setInputCalibration": "タッチスクリーンの調整パラメータの変更をアプリに許可します。通常のアプリでは必要ありません。",
        "permdesc_setTimeZone": "モバイル デバイスのタイムゾーンの変更をアプリに許可します。",
        "permdesc_setWallpaper": "システムの壁紙を設定することをアプリに許可します。",
        "permdesc_setWallpaperHints": "システムの壁紙サイズのヒントを設定することをアプリに許可します。",
        "permdesc_sim_communication": "SIMにコマンドを送信することをアプリに許可します｡この許可は非常に危険です。",
        "permdesc_startViewPermissionUsage": "アプリの権限使用の開始を所有者に許可します。通常のアプリでは不要です。",
        "permdesc_statusBar": "ステータスバーの無効化、システムアイコンの追加や削除をアプリに許可します。",
        "permdesc_statusBarService": "ステータスバーへの表示をアプリに許可します。",
        "permdesc_subscribedFeedsRead": "現在同期されているフィードの詳細を取得することをアプリに許可します。",
        "permdesc_systemAlertWindow": "このアプリは他のアプリの上に重ねて表示したり、画面の他の場所に表示したりできます。これにより、通常のアプリの使用が妨げられたり、他のアプリの表示が変わる場合があります。",
        "permdesc_transmitIr": "携帯電話の赤外線送信機能の使用をアプリに許可します。",
        "permdesc_uninstall_shortcut": "ユーザー操作なしでホーム画面のショートカットを削除することをアプリに許可します。",
        "permdesc_useBiometric": "生体認証ハードウェアを認証に使用することをアプリに許可します",
        "permdesc_useDataInBackground": "このアプリにバックグラウンドでのデータ使用を許可します。許可するとデータ使用量が増える場合があります。",
        "permdesc_useFaceAuthentication": "顔認証ハードウェアを認証に使用することをアプリに許可します",
        "permdesc_useFingerprint": "指紋ハードウェアを認証に使用することをアプリに許可します",
        "permdesc_use_sip": "SIP通話の発着信をアプリに許可します。",
        "permdesc_vibrate": "バイブレーションの制御をアプリに許可します。",
        "permdesc_videoWrite": "動画コレクションの変更をアプリに許可します。",
        "permdesc_wakeLock": "モバイル デバイスのスリープを無効にすることをアプリに許可します。",
        "permdesc_writeCalendar": "このアプリは、お使いのスマートフォンでカレンダーの予定を追加、削除、変更できます。また、カレンダーの所有者から発信されたかのように表示されるメッセージを送信したり、所有者に通知することなく予定を変更したりできます。",
        "permdesc_writeCallLog": "モバイル デバイスの通話履歴（着信や発信のデータなど）の変更をアプリに許可します。この許可を悪意のあるアプリに利用されると、通話履歴が消去または変更される恐れがあります。",
        "permdesc_writeContacts": "モバイルデバイスに保存されている連絡先に関するデータの変更をアプリに許可します。このデータには、電話、メール、または他の手段で特定の相手と連絡をとった頻度も含まれます。これにより、アプリが連絡先データを削除できるようになります。",
        "permdesc_writeGeolocationPermissions": "ブラウザの現在地情報に対する権限の変更をアプリに許可します。この許可を悪意のあるアプリに利用されると、任意のウェブサイトに現在地情報が送信される恐れがあります。",
        "permdesc_writeHistoryBookmarks": "モバイル デバイスに保存されているブラウザの履歴やブックマークの変更をアプリに許可します。これにより、アプリがブラウザデータを消去または変更できるようになる可能性があります。注: この許可は、サードパーティブラウザまたはウェブブラウジング機能を備えたその他のアプリでは適用されない場合があります。",
        "permdesc_writeSettings": "システムの設定データの変更をアプリに許可します。この許可を悪意のあるアプリに利用されると、システムの設定が破損する恐れがあります。",
        "permdesc_writeSyncSettings": "アカウントの同期設定の変更をアプリに許可します。たとえば、連絡帳アプリとアカウントの同期を有効にするために使用できます。",
        "permgroupbackgroundrequest_location": "このデバイスの位置情報に<b>常に</b>?アクセスすることを <b>",
        "permgroupbackgroundrequestdetail_location": "現在、アプリは、ユーザーがアプリを使用している場合のみ位置情報にアクセスできます",
        "permgroupdesc_activityRecognition": "運動データにアクセス",
        "permgroupdesc_calendar": "カレンダーへのアクセス",
        "permgroupdesc_calllog": "通話履歴の読み取りと書き込み",
        "permgroupdesc_camera": "写真と動画の撮影",
        "permgroupdesc_contacts": "連絡先へのアクセス",
        "permgroupdesc_location": "このデバイスの位置情報へのアクセス",
        "permgroupdesc_microphone": "音声の録音",
        "permgroupdesc_phone": "電話の発信と管理",
        "permgroupdesc_sensors": "バイタルサインに関するセンサーデータへのアクセス",
        "permgroupdesc_sms": "SMSメッセージの送信と表示",
        "permgroupdesc_storage": "デバイス内の写真、メディア、ファイルへのアクセス",
        "permgrouplab_activityRecognition": "運動データ",
        "permgrouplab_calendar": "カレンダー",
        "permgrouplab_calllog": "通話履歴",
        "permgrouplab_camera": "カメラ",
        "permgrouplab_contacts": "連絡先",
        "permgrouplab_location": "位置情報",
        "permgrouplab_microphone": "マイク",
        "permgrouplab_phone": "電話",
        "permgrouplab_sensors": "ボディセンサー",
        "permgrouplab_sms": "SMS",
        "permgrouplab_storage": "ストレージ",
        "permgrouprequest_activityRecognition": "運動データへのアクセスを「<b>",
        "permgrouprequest_calendar": "カレンダーへのアクセスを「<b>",
        "permgrouprequest_calllog": "通話履歴へのアクセスを「<b>",
        "permgrouprequest_camera": "写真と動画の撮影を「<b>",
        "permgrouprequest_contacts": "連絡先へのアクセスを「<b>",
        "permgrouprequest_location": "このデバイスの位置情報へのアクセスを「<b>",
        "permgrouprequest_microphone": "音声の録音を「<b>",
        "permgrouprequest_phone": "電話の発信と管理を「<b>",
        "permgrouprequest_sensors": "バイタルサインに関するセンサーデータへのアクセスを「<b>",
        "permgrouprequest_sms": "SMS メッセージの送信と表示を「<b>",
        "permgrouprequest_storage": "デバイス内の写真、メディア、ファイルへのアクセスを「<b>",
        "permgrouprequestdetail_location": "このアプリは、ユーザーがアプリを使用している間のみ位置情報にアクセスできます",
        "permlab_acceptHandover": "別のアプリでの通話の続行",
        "permlab_accessBackgroundLocation": "バックグラウンドでの位置情報へのアクセス",
        "permlab_accessCoarseLocation": "フォアグラウンドでのみ（ネットワークに基づく）おおよその位置情報にアクセス",
        "permlab_accessDrmCertificates": "DRM証明書へのアクセス権",
        "permlab_accessFineLocation": "フォアグラウンドでのみ正確な位置情報にアクセス",
        "permlab_accessImsCallService": "IMS通話サービスへのアクセス",
        "permlab_accessLocationExtraCommands": "位置情報提供者の追加コマンドアクセス",
        "permlab_accessNetworkConditions": "ネットワーク状況監視のためのリッスン",
        "permlab_accessNetworkState": "ネットワーク接続の表示",
        "permlab_accessNotifications": "通知にアクセス",
        "permlab_accessWifiState": "Wi-Fi接続の表示",
        "permlab_accessWimaxState": "WiMAXへの接続と切断",
        "permlab_access_notification_policy": "サイレント モードへのアクセス",
        "permlab_activityRecognition": "運動の認識",
        "permlab_addVoicemail": "ボイスメールの追加",
        "permlab_answerPhoneCalls": "電話の応答",
        "permlab_audioWrite": "音楽コレクションの変更",
        "permlab_bindCarrierMessagingService": "携帯通信会社のSMSサービスへのバインド",
        "permlab_bindCarrierServices": "携帯通信会社のサービスへのバインド",
        "permlab_bindConditionProviderService": "コンディションプロバイダサービスへのバインド",
        "permlab_bindDreamService": "ドリームサービスにバインド",
        "permlab_bindNotificationListenerService": "通知リスナーサービスにバインド",
        "permlab_bind_connection_service": "電話サービスとの通信",
        "permlab_bind_incall_service": "通話画面とのインタラクション",
        "permlab_bluetooth": "Bluetoothデバイスのペアの設定",
        "permlab_bluetoothAdmin": "Bluetoothの設定へのアクセス",
        "permlab_bodySensors": "ボディーセンサー（心拍数モニターなど）へのアクセス",
        "permlab_broadcastSticky": "stickyブロードキャストの配信",
        "permlab_callCompanionApp": "システム経由の通話の表示と操作。",
        "permlab_callPhone": "電話番号発信",
        "permlab_camera": "写真と動画の撮影",
        "permlab_changeNetworkState": "ネットワーク接続の変更",
        "permlab_changeTetherState": "テザリング接続の変更",
        "permlab_changeWifiMulticastState": "Wi-Fiマルチキャストの受信を許可する",
        "permlab_changeWifiState": "Wi-Fiからの接続と切断",
        "permlab_changeWimaxState": "WiMAX状態の変更",
        "permlab_connection_manager": "通信接続の管理",
        "permlab_control_incall_experience": "通話中のユーザーエクスペリエンスの提供",
        "permlab_createNetworkSockets": "ネットワークへのフルアクセス",
        "permlab_disableKeyguard": "画面ロックの無効化",
        "permlab_enableCarMode": "運転モードの有効化",
        "permlab_expandStatusBar": "ステータスバーの拡大/縮小",
        "permlab_foregroundService": "フォアグラウンド サービスの実行",
        "permlab_getAccounts": "このデバイス上のアカウントの検索",
        "permlab_getPackageSize": "アプリのストレージ容量の計測",
        "permlab_getTasks": "実行中のアプリの取得",
        "permlab_handoverStatus": "Androidビーム転送のステータスの受信",
        "permlab_imagesWrite": "写真コレクションの変更",
        "permlab_install_shortcut": "ショートカットのインストール",
        "permlab_invokeCarrierSetup": "携帯通信会社が提供する設定アプリの呼び出し",
        "permlab_killBackgroundProcesses": "他のアプリの終了",
        "permlab_manageFace": "顔認証ハードウェアの管理",
        "permlab_manageFingerprint": "指紋ハードウェアの管理",
        "permlab_manageNetworkPolicy": "ネットワークポリシーの管理",
        "permlab_manageOwnCalls": "システム経由での通話転送",
        "permlab_manageProfileAndDeviceOwners": "プロファイルの所有者とデバイスの所有者の管理",
        "permlab_mediaLocation": "メディア コレクションの位置情報の読み取り",
        "permlab_modifyAudioSettings": "音声設定の変更",
        "permlab_modifyNetworkAccounting": "ネットワークの課金の変更",
        "permlab_nfc": "NFCの管理",
        "permlab_persistentActivity": "アプリの常時実行",
        "permlab_processOutgoingCalls": "発信先の変更",
        "permlab_readCalendar": "カレンダーの予定と詳細を読み取り",
        "permlab_readCallLog": "通話履歴の読み取り",
        "permlab_readCellBroadcasts": "緊急速報メール SMS の読み取り",
        "permlab_readContacts": "連絡先の読み取り",
        "permlab_readHistoryBookmarks": "ウェブのブックマークと履歴の読み取り",
        "permlab_readInstallSessions": "インストールセッションの読み取り",
        "permlab_readNetworkUsageHistory": "ネットワーク使用履歴の読み取り",
        "permlab_readPhoneNumbers": "電話番号の読み取り",
        "permlab_readPhoneState": "デバイス情報と ID の読み取り",
        "permlab_readSms": "テキストメッセージ（SMSまたはMMS）の読み取り",
        "permlab_readSyncSettings": "同期設定の読み取り",
        "permlab_readSyncStats": "同期統計の読み取り",
        "permlab_receiveBootCompleted": "起動時の実行",
        "permlab_receiveMms": "テキストメッセージ（MMS）の受信",
        "permlab_receiveSms": "テキストメッセージ（SMS）の受信",
        "permlab_receiveWapPush": "テキストメッセージ（WAP）の受信",
        "permlab_recordAudio": "録音",
        "permlab_register_call_provider": "新しい通信接続の登録",
        "permlab_register_sim_subscription": "新しい通信SIM接続の登録",
        "permlab_removeDrmCertificates": "DRM証明書の削除",
        "permlab_reorderTasks": "実行中のアプリの順序変更",
        "permlab_requestDeletePackages": "パッケージの削除のリクエスト",
        "permlab_requestIgnoreBatteryOptimizations": "電池の最適化を無視するかどうかの確認",
        "permlab_requestInstallPackages": "インストールパッケージのリクエスト",
        "permlab_requestPasswordComplexity": "画面ロックの複雑さのリクエスト",
        "permlab_route_media_output": "メディア出力のルーティング",
        "permlab_runInBackground": "バックグラウンドでの実行",
        "permlab_sdcardRead": "共有ストレージのコンテンツの読み取り",
        "permlab_sdcardWrite": "共有ストレージのコンテンツの変更または削除",
        "permlab_sendSms": "SMSメッセージの送信と表示",
        "permlab_setAlarm": "アラームの設定",
        "permlab_setInputCalibration": "入力デバイスの調整を変更",
        "permlab_setTimeZone": "タイムゾーンの設定",
        "permlab_setWallpaper": "壁紙の設定",
        "permlab_setWallpaperHints": "壁紙のサイズの調整",
        "permlab_sim_communication": "SIMへのコマンド送信",
        "permlab_startViewPermissionUsage": "表示権限の使用の開始",
        "permlab_statusBar": "ステータスバーの無効化や変更",
        "permlab_statusBarService": "ステータスバーへの表示",
        "permlab_subscribedFeedsRead": "登録したフィードの読み取り",
        "permlab_systemAlertWindow": "他のアプリの上に重ねて表示",
        "permlab_transmitIr": "赤外線の送信",
        "permlab_uninstall_shortcut": "ショートカットのアンインストール",
        "permlab_useBiometric": "生体認証ハードウェアの使用",
        "permlab_useDataInBackground": "バックグラウンドでのデータ使用",
        "permlab_useFaceAuthentication": "顔認証ハードウェアの使用",
        "permlab_useFingerprint": "指紋ハードウェアの使用",
        "permlab_use_sip": "SIP通話の発着信",
        "permlab_vibrate": "バイブレーションの制御",
        "permlab_videoWrite": "動画コレクションの変更",
        "permlab_wakeLock": "デバイスのスリープを無効にする",
        "permlab_writeCalendar": "カレンダーの予定の変更や追加を行う、所有者に通知せずにゲストにメールを送信する場合がある",
        "permlab_writeCallLog": "通話履歴の書き込み",
        "permlab_writeContacts": "連絡先の変更",
        "permlab_writeGeolocationPermissions": "ブラウザの現在地情報に対する権限の変更",
        "permlab_writeHistoryBookmarks": "ウェブのブックマークと履歴の書き込み",
        "permlab_writeSettings": "システム設定の変更",
        "permlab_writeSyncSettings": "同期のON/OFFの切り替え"
    },
    "sidebars": {
        "donate": {
            "bank_transfer_name": "名前",
            "bitcoin_alt": "Bitcoinで寄付する",
            "flattr_alt": "Flattrで寄付する",
            "heading": "寄付する",
            "hellotux": "👕 Tシャツ 👕 から",
            "hellotux_alt": "HELLOTUX",
            "hellotux_donation": "F-Droid はシャツが売れるごとに 3€ 受け取ります。",
            "liberapay_alt": "Liberapayで寄付する",
            "litecoin_alt": "Litecoinで寄付する",
            "paypal_alt": "PayPalで寄付する",
            "powered_by_donations": "F-Droidは皆さまの寄付によって支えられています！",
            "via_bank_transfer": "銀行振込"
        },
        "lang": {
            "change": "変更"
        },
        "last_updated": {
            "heading": "最終更新"
        },
        "latest_packages": {
            "heading": "最新のアプリ"
        },
        "news": {
            "heading": "ニュース"
        },
        "search": {
            "heading": "アプリを探す",
            "noscript": "Javaスクリプトを有効にする必要があります",
            "search": "検索"
        }
    }
}
